__S0 800 0 ABS 0
__S1 73 0 ABS 0
__S3 0 0 ABS 0
__Hintentry 0 0 CODE 0
__Lintentry 0 0 CODE 0
_main 7D2 0 CODE 0
___sp 0 0 STACK 2
btemp 7E 0 ABS 0
start 0 0 CODE 0
reset_vec 0 0 CODE 0
wtemp0 7E 0 ABS 0
__Hconfig 2009 0 CONFIG 4
__Lconfig 0 0 CONFIG 4
__Hram 0 0 ABS 0
__Lram 0 0 ABS 0
___int_stack_hi 0 0 STACK 2
__Hfunctab 0 0 ENTRY 0
__Lfunctab 0 0 ENTRY 0
__Hcommon 0 0 ABS 0
__Lcommon 0 0 ABS 0
__Heeprom_data 0 0 EEDATA 3
__Leeprom_data 0 0 EEDATA 3
___int_sp 0 0 STACK 2
__Habs1 0 0 ABS 0
__Labs1 0 0 ABS 0
__Hsfr0 0 0 ABS 0
__Lsfr0 0 0 ABS 0
__Hsfr1 0 0 ABS 0
__Lsfr1 0 0 ABS 0
__Hsfr2 0 0 ABS 0
__Lsfr2 0 0 ABS 0
__Hsfr3 0 0 ABS 0
__Lsfr3 0 0 ABS 0
___heap_hi 0 0 ABS 0
___stackhi 0 0 ABS 0
__Hcode 0 0 ABS 0
__Lcode 0 0 ABS 0
__Hheap 0 0 HEAP 7
__Lheap 0 0 HEAP 7
__Hinit 0 0 CODE 0
__Linit 0 0 CODE 0
__end_of_main 7FC 0 CODE 0
__Hsivt 0 0 CODE 0
__Htext 0 0 ABS 0
__Lsivt 0 0 CODE 0
__Ltext 0 0 ABS 0
___heap_lo 0 0 ABS 0
end_of_initialization 7FC 0 CODE 0
___stacklo 0 0 ABS 0
_TRISBbits 86 0 ABS 0
_PORTBbits 6 0 ABS 0
__Hstrings 0 0 ABS 0
__Lstrings 0 0 ABS 0
__Hbank0 0 0 ABS 0
__Lbank0 0 0 ABS 0
__Hbank1 0 0 ABS 0
__Lbank1 0 0 ABS 0
__Hbank2 0 0 ABS 0
__Lbank2 0 0 ABS 0
__Hbank3 0 0 ABS 0
__Lbank3 0 0 ABS 0
___latbits 2 0 ABS 0
__Hpowerup 0 0 CODE 0
__Lpowerup 0 0 CODE 0
___stack_hi 0 0 STACK 2
__Hclrtext 0 0 ABS 0
__Lclrtext 0 0 ABS 0
__end_of__initialization 7FC 0 CODE 0
__H__absolute__ 0 0 ABS 0
__L__absolute__ 0 0 ABS 0
__Hstack 0 0 STACK 2
__Lstack 0 0 STACK 2
__Hspace_0 800 0 ABS 0
__Lspace_0 0 0 ABS 0
__Hspace_1 73 0 ABS 0
__Lspace_1 0 0 ABS 0
__Hspace_2 0 0 ABS 0
__Lspace_2 0 0 ABS 0
__Hcinit 800 0 CODE 0
__Lcinit 7FC 0 CODE 0
__Hspace_3 0 0 ABS 0
__Lspace_3 0 0 ABS 0
__Hspace_4 4010 0 ABS 0
__Lspace_4 0 0 ABS 0
___stack_lo 0 0 STACK 2
_ANSELHbits 189 0 ABS 0
_OSCCONbits 8F 0 ABS 0
__Hend_init 3 0 CODE 0
__Lend_init 0 0 CODE 0
__Hreset_vec 0 0 CODE 0
__Lreset_vec 0 0 CODE 0
intlevel0 0 0 ENTRY 0
intlevel1 0 0 ENTRY 0
intlevel2 0 0 ENTRY 0
intlevel3 0 0 ENTRY 0
intlevel4 0 0 ENTRY 0
intlevel5 0 0 ENTRY 0
__HcstackCOMMON 0 0 ABS 0
__LcstackCOMMON 0 0 ABS 0
__pcstackCOMMON 70 0 COMMON 1
start_initialization 7FC 0 CODE 0
___int_stack_lo 0 0 STACK 2
__Hmaintext 0 0 ABS 0
__Lmaintext 0 0 ABS 0
__pmaintext 7D2 0 CODE 0
__initialization 7FC 0 CODE 0
%segments
reset_vec 0 5 CODE 0 0
cinit FF8 FFF CODE FF8 0
cstackCOMMON 70 72 COMMON 70 1
maintext FA4 FF7 CODE FA4 0
%locals
dist/default/production\PIC16F887_HelloWorld.X.production.o
C:\Users\Ruben\AppData\Local\Temp\xcAs3v8.\driver_tmp_1.s
432 7FC 0 CODE 0
435 7FC 0 CODE 0
441 7FC 0 CODE 0
443 7FC 0 CODE 0
444 7FD 0 CODE 0
main.c
36 7D2 0 CODE 0
40 7D2 0 CODE 0
43 7D6 0 CODE 0
46 7D9 0 CODE 0
49 7DC 0 CODE 0
54 7DF 0 CODE 0
55 7EB 0 CODE 0
