# 1 "C:\\Tools\\Microchip\\xc8\\v2.46\\pic\\sources\\c99\\common\\doprnt.c"
# 1 "<built-in>" 1
# 1 "<built-in>" 3
# 288 "<built-in>" 3
# 1 "<command line>" 1
# 1 "<built-in>" 2
# 1 "C:\\Tools\\Microchip\\xc8\\v2.46\\pic\\include\\language_support.h" 1 3
# 2 "<built-in>" 2
# 1 "C:\\Tools\\Microchip\\xc8\\v2.46\\pic\\sources\\c99\\common\\doprnt.c" 2


# 1 "C:\\Tools\\Microchip\\xc8\\v2.46\\pic\\include\\c99\\ctype.h" 1 3







# 1 "C:\\Tools\\Microchip\\xc8\\v2.46\\pic\\include\\c99\\features.h" 1 3
# 9 "C:\\Tools\\Microchip\\xc8\\v2.46\\pic\\include\\c99\\ctype.h" 2 3

int isalnum(int);
int isalpha(int);
int isblank(int);
int iscntrl(int);
int isdigit(int);
int isgraph(int);
int islower(int);
int isprint(int);
int ispunct(int);
int isspace(int);
int isupper(int);
int isxdigit(int);
int tolower(int);
int toupper(int);
# 3 "C:\\Tools\\Microchip\\xc8\\v2.46\\pic\\sources\\c99\\common\\doprnt.c" 2

# 1 "C:\\Tools\\Microchip\\xc8\\v2.46\\pic\\include\\c99\\math.h" 1 3



# 1 "C:\\Tools\\Microchip\\xc8\\v2.46\\pic\\include\\c99\\musl_xc8.h" 1 3
# 5 "C:\\Tools\\Microchip\\xc8\\v2.46\\pic\\include\\c99\\math.h" 2 3





# 1 "C:\\Tools\\Microchip\\xc8\\v2.46\\pic\\include\\c99\\stdint.h" 1 3
# 26 "C:\\Tools\\Microchip\\xc8\\v2.46\\pic\\include\\c99\\stdint.h" 3
# 1 "C:\\Tools\\Microchip\\xc8\\v2.46\\pic\\include\\c99\\bits/alltypes.h" 1 3
# 133 "C:\\Tools\\Microchip\\xc8\\v2.46\\pic\\include\\c99\\bits/alltypes.h" 3
typedef unsigned short uintptr_t;
# 148 "C:\\Tools\\Microchip\\xc8\\v2.46\\pic\\include\\c99\\bits/alltypes.h" 3
typedef short intptr_t;
# 164 "C:\\Tools\\Microchip\\xc8\\v2.46\\pic\\include\\c99\\bits/alltypes.h" 3
typedef signed char int8_t;




typedef short int16_t;




typedef __int24 int24_t;




typedef long int32_t;
# 192 "C:\\Tools\\Microchip\\xc8\\v2.46\\pic\\include\\c99\\bits/alltypes.h" 3
typedef int32_t intmax_t;







typedef unsigned char uint8_t;




typedef unsigned short uint16_t;




typedef __uint24 uint24_t;




typedef unsigned long uint32_t;
# 233 "C:\\Tools\\Microchip\\xc8\\v2.46\\pic\\include\\c99\\bits/alltypes.h" 3
typedef uint32_t uintmax_t;
# 27 "C:\\Tools\\Microchip\\xc8\\v2.46\\pic\\include\\c99\\stdint.h" 2 3

typedef int8_t int_fast8_t;




typedef int8_t int_least8_t;
typedef int16_t int_least16_t;

typedef int24_t int_least24_t;
typedef int24_t int_fast24_t;

typedef int32_t int_least32_t;




typedef uint8_t uint_fast8_t;




typedef uint8_t uint_least8_t;
typedef uint16_t uint_least16_t;

typedef uint24_t uint_least24_t;
typedef uint24_t uint_fast24_t;

typedef uint32_t uint_least32_t;
# 148 "C:\\Tools\\Microchip\\xc8\\v2.46\\pic\\include\\c99\\stdint.h" 3
# 1 "C:\\Tools\\Microchip\\xc8\\v2.46\\pic\\include\\c99\\bits/stdint.h" 1 3
typedef int16_t int_fast16_t;
typedef int32_t int_fast32_t;
typedef uint16_t uint_fast16_t;
typedef uint32_t uint_fast32_t;
# 149 "C:\\Tools\\Microchip\\xc8\\v2.46\\pic\\include\\c99\\stdint.h" 2 3
# 11 "C:\\Tools\\Microchip\\xc8\\v2.46\\pic\\include\\c99\\math.h" 2 3




# 1 "C:\\Tools\\Microchip\\xc8\\v2.46\\pic\\include\\c99\\bits/alltypes.h" 1 3
# 39 "C:\\Tools\\Microchip\\xc8\\v2.46\\pic\\include\\c99\\bits/alltypes.h" 3
typedef float float_t;




typedef double double_t;
# 16 "C:\\Tools\\Microchip\\xc8\\v2.46\\pic\\include\\c99\\math.h" 2 3
# 42 "C:\\Tools\\Microchip\\xc8\\v2.46\\pic\\include\\c99\\math.h" 3
int __fpclassifyf(float);







int __signbitf(float);
# 59 "C:\\Tools\\Microchip\\xc8\\v2.46\\pic\\include\\c99\\math.h" 3
double acos(double);
float acosf(float);
long double acosl(long double);



double acosh(double);
float acoshf(float);
long double acoshl(long double);



double asin(double);
float asinf(float);
long double asinl(long double);



double asinh(double);
float asinhf(float);
long double asinhl(long double);



double atan(double);
float atanf(float);
long double atanl(long double);



double atan2(double, double);
float atan2f(float, float);
long double atan2l(long double, long double);



double atanh(double);
float atanhf(float);
long double atanhl(long double);



double cbrt(double);
float cbrtf(float);
long double cbrtl(long double);



double ceil(double);
float ceilf(float);
long double ceill(long double);



double copysign(double, double);
float copysignf(float, float);
long double copysignl(long double, long double);



double cos(double);
float cosf(float);
long double cosl(long double);



double cosh(double);
float coshf(float);
long double coshl(long double);



double erf(double);
float erff(float);
long double erfl(long double);



double erfc(double);
float erfcf(float);
long double erfcl(long double);



double exp(double);
float expf(float);
long double expl(long double);



double exp2(double);
float exp2f(float);
long double exp2l(long double);



double expm1(double);
float expm1f(float);
long double expm1l(long double);



double fabs(double);
float fabsf(float);
long double fabsl(long double);



double fdim(double, double);
float fdimf(float, float);
long double fdiml(long double, long double);



double floor(double);
float floorf(float);
long double floorl(long double);



double fma(double, double, double);
float fmaf(float, float, float);
long double fmal(long double, long double, long double);



double fmax(double, double);
float fmaxf(float, float);
long double fmaxl(long double, long double);



double fmin(double, double);
float fminf(float, float);
long double fminl(long double, long double);



double fmod(double, double);
float fmodf(float, float);
long double fmodl(long double, long double);



double frexp(double, int *);
float frexpf(float, int *);
long double frexpl(long double, int *);



double hypot(double, double);
float hypotf(float, float);
long double hypotl(long double, long double);



int ilogb(double);
int ilogbf(float);
int ilogbl(long double);



double ldexp(double, int);
float ldexpf(float, int);
long double ldexpl(long double, int);




double lgamma(double);
float lgammaf(float);
long double lgammal(long double);
# 248 "C:\\Tools\\Microchip\\xc8\\v2.46\\pic\\include\\c99\\math.h" 3
double log(double);
float logf(float);
long double logl(long double);



double log10(double);
float log10f(float);
long double log10l(long double);



double log1p(double);
float log1pf(float);
long double log1pl(long double);



double log2(double);
float log2f(float);
long double log2l(long double);



double logb(double);
float logbf(float);
long double logbl(long double);



long lrint(double);
long lrintf(float);
long lrintl(long double);



long lround(double);
long lroundf(float);
long lroundl(long double);



double modf(double, double *);
float modff(float, float *);
long double modfl(long double, long double *);



double nan(const char *);
float nanf(const char *);
long double nanl(const char *);



double nearbyint(double);
float nearbyintf(float);
long double nearbyintl(long double);



double nextafter(double, double);
float nextafterf(float, float);
long double nextafterl(long double, long double);



double nexttoward(double, long double);
float nexttowardf(float, long double);
long double nexttowardl(long double, long double);
# 326 "C:\\Tools\\Microchip\\xc8\\v2.46\\pic\\include\\c99\\math.h" 3
double pow(double, double);
__attribute__((nonreentrant)) float powf(float, float);
long double powl(long double, long double);



double remainder(double, double);
float remainderf(float, float);
long double remainderl(long double, long double);



double remquo(double, double, int *);
float remquof(float, float, int *);
long double remquol(long double, long double, int *);



double rint(double);
float rintf(float);
long double rintl(long double);



double round(double);
float roundf(float);
long double roundl(long double);



double scalbln(double, long);
float scalblnf(float, long);
long double scalblnl(long double, long);



double scalbn(double, int);
float scalbnf(float, int);
long double scalbnl(long double, int);



double sin(double);
float sinf(float);
long double sinl(long double);



double sinh(double);
float sinhf(float);
long double sinhl(long double);



double sqrt(double);
float sqrtf(float);
long double sqrtl(long double);



double tan(double);
float tanf(float);
long double tanl(long double);



double tanh(double);
float tanhf(float);
long double tanhl(long double);



double tgamma(double);
float tgammaf(float);
long double tgammal(long double);



double trunc(double);
float truncf(float);
long double truncl(long double);
# 431 "C:\\Tools\\Microchip\\xc8\\v2.46\\pic\\include\\c99\\math.h" 3
extern int signgam;

double j0(double);
double j1(double);
double jn(int, double);

double y0(double);
double y1(double);
double yn(int, double);
# 4 "C:\\Tools\\Microchip\\xc8\\v2.46\\pic\\sources\\c99\\common\\doprnt.c" 2

# 1 "C:\\Tools\\Microchip\\xc8\\v2.46\\pic\\include\\c99\\stdarg.h" 1 3







# 1 "C:\\Tools\\Microchip\\xc8\\v2.46\\pic\\include\\c99\\bits/alltypes.h" 1 3
# 12 "C:\\Tools\\Microchip\\xc8\\v2.46\\pic\\include\\c99\\bits/alltypes.h" 3
typedef void * va_list[1];
# 9 "C:\\Tools\\Microchip\\xc8\\v2.46\\pic\\include\\c99\\stdarg.h" 2 3

#pragma intrinsic(__va_start)
#pragma intrinsic(__va_arg)

extern void * __va_start(void);
extern void * __va_arg(void *, ...);
# 5 "C:\\Tools\\Microchip\\xc8\\v2.46\\pic\\sources\\c99\\common\\doprnt.c" 2

# 1 "C:\\Tools\\Microchip\\xc8\\v2.46\\pic\\include\\c99\\stddef.h" 1 3
# 19 "C:\\Tools\\Microchip\\xc8\\v2.46\\pic\\include\\c99\\stddef.h" 3
# 1 "C:\\Tools\\Microchip\\xc8\\v2.46\\pic\\include\\c99\\bits/alltypes.h" 1 3
# 24 "C:\\Tools\\Microchip\\xc8\\v2.46\\pic\\include\\c99\\bits/alltypes.h" 3
typedef long int wchar_t;
# 128 "C:\\Tools\\Microchip\\xc8\\v2.46\\pic\\include\\c99\\bits/alltypes.h" 3
typedef unsigned size_t;
# 138 "C:\\Tools\\Microchip\\xc8\\v2.46\\pic\\include\\c99\\bits/alltypes.h" 3
typedef int ptrdiff_t;
# 20 "C:\\Tools\\Microchip\\xc8\\v2.46\\pic\\include\\c99\\stddef.h" 2 3
# 6 "C:\\Tools\\Microchip\\xc8\\v2.46\\pic\\sources\\c99\\common\\doprnt.c" 2


# 1 "C:\\Tools\\Microchip\\xc8\\v2.46\\pic\\include\\c99\\stdio.h" 1 3
# 24 "C:\\Tools\\Microchip\\xc8\\v2.46\\pic\\include\\c99\\stdio.h" 3
# 1 "C:\\Tools\\Microchip\\xc8\\v2.46\\pic\\include\\c99\\bits/alltypes.h" 1 3
# 17 "C:\\Tools\\Microchip\\xc8\\v2.46\\pic\\include\\c99\\bits/alltypes.h" 3
typedef void * __isoc_va_list[1];
# 143 "C:\\Tools\\Microchip\\xc8\\v2.46\\pic\\include\\c99\\bits/alltypes.h" 3
typedef short ssize_t;
# 253 "C:\\Tools\\Microchip\\xc8\\v2.46\\pic\\include\\c99\\bits/alltypes.h" 3
typedef long off_t;
# 409 "C:\\Tools\\Microchip\\xc8\\v2.46\\pic\\include\\c99\\bits/alltypes.h" 3
typedef struct _IO_FILE FILE;
# 25 "C:\\Tools\\Microchip\\xc8\\v2.46\\pic\\include\\c99\\stdio.h" 2 3
# 52 "C:\\Tools\\Microchip\\xc8\\v2.46\\pic\\include\\c99\\stdio.h" 3
typedef union _G_fpos64_t {
 char __opaque[16];
 double __align;
} fpos_t;

extern FILE *const stdin;
extern FILE *const stdout;
extern FILE *const stderr;





FILE *fopen(const char *restrict, const char *restrict);
FILE *freopen(const char *restrict, const char *restrict, FILE *restrict);
int fclose(FILE *);

int remove(const char *);
int rename(const char *, const char *);

int feof(FILE *);
int ferror(FILE *);
int fflush(FILE *);
void clearerr(FILE *);

int fseek(FILE *, long, int);
long ftell(FILE *);
void rewind(FILE *);

int fgetpos(FILE *restrict, fpos_t *restrict);
int fsetpos(FILE *, const fpos_t *);

size_t fread(void *restrict, size_t, size_t, FILE *restrict);
size_t fwrite(const void *restrict, size_t, size_t, FILE *restrict);

int fgetc(FILE *);
int getc(FILE *);
int getchar(void);





int ungetc(int, FILE *);
int getch(void);

int fputc(int, FILE *);
int putc(int, FILE *);
int putchar(int);





void putch(char);

char *fgets(char *restrict, int, FILE *restrict);

char *gets(char *);


int fputs(const char *restrict, FILE *restrict);
int puts(const char *);

__attribute__((__format__(__printf__, 1, 2)))
int printf(const char *restrict, ...);
__attribute__((__format__(__printf__, 2, 3)))
int fprintf(FILE *restrict, const char *restrict, ...);
__attribute__((__format__(__printf__, 2, 3)))
int sprintf(char *restrict, const char *restrict, ...);
__attribute__((__format__(__printf__, 3, 4)))
int snprintf(char *restrict, size_t, const char *restrict, ...);

__attribute__((__format__(__printf__, 1, 0)))
int vprintf(const char *restrict, __isoc_va_list);
int vfprintf(FILE *restrict, const char *restrict, __isoc_va_list);
__attribute__((__format__(__printf__, 2, 0)))
int vsprintf(char *restrict, const char *restrict, __isoc_va_list);
__attribute__((__format__(__printf__, 3, 0)))
int vsnprintf(char *restrict, size_t, const char *restrict, __isoc_va_list);

__attribute__((__format__(__scanf__, 1, 2)))
int scanf(const char *restrict, ...);
__attribute__((__format__(__scanf__, 2, 3)))
int fscanf(FILE *restrict, const char *restrict, ...);
__attribute__((__format__(__scanf__, 2, 3)))
int sscanf(const char *restrict, const char *restrict, ...);

__attribute__((__format__(__scanf__, 1, 0)))
int vscanf(const char *restrict, __isoc_va_list);
int vfscanf(FILE *restrict, const char *restrict, __isoc_va_list);
__attribute__((__format__(__scanf__, 2, 0)))
int vsscanf(const char *restrict, const char *restrict, __isoc_va_list);

void perror(const char *);

int setvbuf(FILE *restrict, char *restrict, int, size_t);
void setbuf(FILE *restrict, char *restrict);

char *tmpnam(char *);
FILE *tmpfile(void);




FILE *fmemopen(void *restrict, size_t, const char *restrict);
FILE *open_memstream(char **, size_t *);
FILE *fdopen(int, const char *);
FILE *popen(const char *, const char *);
int pclose(FILE *);
int fileno(FILE *);
int fseeko(FILE *, off_t, int);
off_t ftello(FILE *);
int dprintf(int, const char *restrict, ...);
int vdprintf(int, const char *restrict, __isoc_va_list);
void flockfile(FILE *);
int ftrylockfile(FILE *);
void funlockfile(FILE *);
int getc_unlocked(FILE *);
int getchar_unlocked(void);
int putc_unlocked(int, FILE *);
int putchar_unlocked(int);
ssize_t getdelim(char **restrict, size_t *restrict, int, FILE *restrict);
ssize_t getline(char **restrict, size_t *restrict, FILE *restrict);
int renameat(int, const char *, int, const char *);
char *ctermid(char *);







char *tempnam(const char *, const char *);
# 8 "C:\\Tools\\Microchip\\xc8\\v2.46\\pic\\sources\\c99\\common\\doprnt.c" 2

# 1 "C:\\Tools\\Microchip\\xc8\\v2.46\\pic\\include\\c99\\stdlib.h" 1 3
# 21 "C:\\Tools\\Microchip\\xc8\\v2.46\\pic\\include\\c99\\stdlib.h" 3
# 1 "C:\\Tools\\Microchip\\xc8\\v2.46\\pic\\include\\c99\\bits/alltypes.h" 1 3
# 22 "C:\\Tools\\Microchip\\xc8\\v2.46\\pic\\include\\c99\\stdlib.h" 2 3

int atoi (const char *);
long atol (const char *);



double atof (const char *);


float strtof (const char *restrict, char **restrict);
double strtod (const char *restrict, char **restrict);
long double strtold (const char *restrict, char **restrict);



long strtol (const char *restrict, char **restrict, int);
unsigned long strtoul (const char *restrict, char **restrict, int);





unsigned long __strtoxl(const char * s, char ** endptr, int base, char is_signed);
# 55 "C:\\Tools\\Microchip\\xc8\\v2.46\\pic\\include\\c99\\stdlib.h" 3
int rand (void);
void srand (unsigned);

void *malloc (size_t);
void *calloc (size_t, size_t);
void *realloc (void *, size_t);
void free (void *);

          void abort (void);
int atexit (void (*) (void));
          void exit (int);
          void _Exit (int);

void *bsearch (const void *, const void *, size_t, size_t, int (*)(const void *, const void *));







__attribute__((nonreentrant)) void qsort (void *, size_t, size_t, int (*)(const void *, const void *));

int abs (int);
long labs (long);




typedef struct { int quot, rem; } div_t;
typedef struct { long quot, rem; } ldiv_t;




div_t div (int, int);
ldiv_t ldiv (long, long);




typedef struct { unsigned int quot, rem; } udiv_t;
typedef struct { unsigned long quot, rem; } uldiv_t;
udiv_t udiv (unsigned int, unsigned int);
uldiv_t uldiv (unsigned long, unsigned long);
# 9 "C:\\Tools\\Microchip\\xc8\\v2.46\\pic\\sources\\c99\\common\\doprnt.c" 2

# 1 "C:\\Tools\\Microchip\\xc8\\v2.46\\pic\\include\\c99\\string.h" 1 3
# 25 "C:\\Tools\\Microchip\\xc8\\v2.46\\pic\\include\\c99\\string.h" 3
# 1 "C:\\Tools\\Microchip\\xc8\\v2.46\\pic\\include\\c99\\bits/alltypes.h" 1 3
# 421 "C:\\Tools\\Microchip\\xc8\\v2.46\\pic\\include\\c99\\bits/alltypes.h" 3
typedef struct __locale_struct * locale_t;
# 26 "C:\\Tools\\Microchip\\xc8\\v2.46\\pic\\include\\c99\\string.h" 2 3

void *memcpy (void *restrict, const void *restrict, size_t);
void *memmove (void *, const void *, size_t);
void *memset (void *, int, size_t);
int memcmp (const void *, const void *, size_t);
void *memchr (const void *, int, size_t);

char *strcpy (char *restrict, const char *restrict);
char *strncpy (char *restrict, const char *restrict, size_t);

char *strcat (char *restrict, const char *restrict);
char *strncat (char *restrict, const char *restrict, size_t);

int strcmp (const char *, const char *);
int strncmp (const char *, const char *, size_t);

int strcoll (const char *, const char *);
size_t strxfrm (char *restrict, const char *restrict, size_t);

char *strchr (const char *, int);
char *strrchr (const char *, int);

size_t strcspn (const char *, const char *);
size_t strspn (const char *, const char *);
char *strpbrk (const char *, const char *);
char *strstr (const char *, const char *);
char *strtok (char *restrict, const char *restrict);

size_t strlen (const char *);

char *strerror (int);




char *strtok_r (char *restrict, const char *restrict, char **restrict);
int strerror_r (int, char *, size_t);
char *stpcpy(char *restrict, const char *restrict);
char *stpncpy(char *restrict, const char *restrict, size_t);
size_t strnlen (const char *, size_t);
char *strdup (const char *);
char *strndup (const char *, size_t);
char *strsignal(int);
char *strerror_l (int, locale_t);
int strcoll_l (const char *, const char *, locale_t);
size_t strxfrm_l (char *restrict, const char *restrict, size_t, locale_t);




void *memccpy (void *restrict, const void *restrict, int, size_t);
# 10 "C:\\Tools\\Microchip\\xc8\\v2.46\\pic\\sources\\c99\\common\\doprnt.c" 2

# 1 "C:\\Tools\\Microchip\\xc8\\v2.46\\pic\\include\\c99\\inline.h" 1 3
# 11 "C:\\Tools\\Microchip\\xc8\\v2.46\\pic\\sources\\c99\\common\\doprnt.c" 2

# 1 "C:\\Tools\\Microchip\\xc8\\v2.46\\pic\\include\\c99\\stdbool.h" 1 3
# 12 "C:\\Tools\\Microchip\\xc8\\v2.46\\pic\\sources\\c99\\common\\doprnt.c" 2
# 97 "C:\\Tools\\Microchip\\xc8\\v2.46\\pic\\sources\\c99\\common\\doprnt.c"
typedef signed int vfpf_sint_t;
typedef unsigned int vfpf_uint_t;
# 153 "C:\\Tools\\Microchip\\xc8\\v2.46\\pic\\sources\\c99\\common\\doprnt.c"
static int prec, width;
static char flags;

union flui {
 long double f;



 int32_t u;

};
# 185 "C:\\Tools\\Microchip\\xc8\\v2.46\\pic\\sources\\c99\\common\\doprnt.c"
static char dbuf[32];



static int nout;



static int pad(FILE *fp, char *buf, int p)
{
    int i;



    if (flags & (1 << 0)) {
        fputs((const char *)buf, fp);
    }



 if (p < 0) {
  p = 0;
 }
    i = 0;
    while (i < p) {
        fputc(' ', fp);
        ++i;
    }



    if (!(flags & (1 << 0))) {

        fputs((const char *)buf, fp);

    }



    return (int)(strlen(buf) + (size_t)p);

}
# 476 "C:\\Tools\\Microchip\\xc8\\v2.46\\pic\\sources\\c99\\common\\doprnt.c"
static int ctoa(FILE *fp, char c)
{
    int l,w;


    w = width ? width - 1 : width;



    if (flags & (1 << 0)) {
        fputc(c, fp);
    }



    w = (w < 0) ? 0 : w;
    l = 0;
    while (l < w) {
        fputc(' ', fp);
        ++l;
    }


    if (!(flags & (1 << 0))) {

        fputc(c, fp);

    }



    return l+1;

}



static int dtoa(FILE *fp, vfpf_sint_t d)
{
 char s;
    int i, w;

 int p;





    s = d < 0 ? 1 : 0;




    if (!(prec < 0)) {
        flags &= ~(1 << 1);
    }

    p = (0 <= prec) ? prec : 1;

    w = width;
    if (s

   || (flags & (1 << 2))

    ) {
        --w;
  s = s ? '-' : '+';
    }

 else if (flags & (1 << 3)) {
        --w;
  s = ' ';
 }



    i = sizeof(dbuf) - 1;
    dbuf[i] = '\0';
    while (!(i < 1) && (d != 0

    || (0 < p)




    || ((0 < w) && (flags & (1 << 1)))

    )) {
        --i;
        dbuf[i] = (char)((int)'0' + abs(d % 10));

        --p;



        --w;
        d = d / 10;
    }


    if (s != 0) {
        --i;
        dbuf[i] = s;
    }


    return (int) pad(fp, &dbuf[i], w);
}
# 872 "C:\\Tools\\Microchip\\xc8\\v2.46\\pic\\sources\\c99\\common\\doprnt.c"
static int otoa(FILE *fp, vfpf_uint_t d)
{

 char t;

    int i, w;

 int p;







    if (!(prec < 0)) {
        flags &= ~(1 << 1);
    }

    p = (0 <= prec) ? prec : 1;

    w = width;


    i = sizeof(dbuf) - 1;
    dbuf[i] = '\0';

    t = 0;

    while (!(i < 1) && (d != 0

    || (0 < p)




    || ((0 < w) && (flags & (1 << 1)))

    )) {
        --i;

        t = d & 07;
        dbuf[i] = (char)((int)'0' + t);




        --p;



        --w;
        d = d >> 3;
    }



    if ((t || prec == 0) && (flags & (1 << 4))) {
        --i;
        dbuf[i] = '0';
        --w;
    }



    return (int) pad(fp, &dbuf[i], w);
}
# 1001 "C:\\Tools\\Microchip\\xc8\\v2.46\\pic\\sources\\c99\\common\\doprnt.c"
static int utoa(FILE *fp, vfpf_uint_t d)
{
    int i, w;

 int p;







    if (!(prec < 0)) {
        flags &= ~(1 << 1);
    }

    p = (0 <= prec) ? prec : 1;

    w = width;


    i = sizeof(dbuf) - 1;
    dbuf[i] = '\0';
    while (i && (d != 0

    || (0 < p)




    || ((0 < w) && (flags & (1 << 1)))

    )) {
        --i;
        dbuf[i] = '0' + (d % 10);

        --p;



        --w;
        d = d / 10;
    }


    return (int) pad(fp, &dbuf[i], w);
}




static int xtoa(FILE *fp, vfpf_uint_t d, char x)





{
 char c;

 char a;

    int i, w;

 int p;




 _Bool d_nonzero = 0;





    if (!(prec < 0)) {
        flags &= ~(1 << 1);
    }

    p = (0 <= prec) ? prec : 1;

    w = width;

 d_nonzero = d != 0;
    if ((flags & (1 << 4)) && d_nonzero) {
        w -= 2;
    }



 a = x == 'x' ? 'a' : 'A';



    i = sizeof(dbuf) - 1;
    dbuf[i] = '\0';
    while (!(i < 2) && (d != 0

    || (0 < p)




    || ((0 < w) && (flags & (1 << 1)))

    )) {
        --i;
        c = d & 0x0f;
  if (c < 10) {
   c += '0';
  }
  else {

   c += a - 10;





  }
  dbuf[i] = c;

        --p;



        --w;
        d = d >> 4;
    }



    if ((flags & (1 << 4)) && d_nonzero

   && prec != 0

    ) {
        --i;

        dbuf[i] = x;





        --i;
        dbuf[i] = '0';
    }



    return (int) pad(fp, &dbuf[i], w);
}



static int
read_prec_or_width (const char **fmt, va_list *ap) {
    int n = 0;
    if ((*fmt)[0] == '*') {
        ++*fmt;
        n = (*(int *)__va_arg(*(int **)*ap, (int)0));
    } else {
        unsigned char c;
        while ((c = ((unsigned)(*fmt)[0]) - '0') < 10) {
            n = n * 10 + c;
            ++*fmt;
        }
    }
    return n;
}




static int
vfpfcnvrt(FILE *fp, char *fmt[], va_list ap)
{
    char c, *cp;
    _Bool done;

 union {

  vfpf_sint_t sint;
  vfpf_uint_t uint;

  long double f;
 } convarg;
# 1201 "C:\\Tools\\Microchip\\xc8\\v2.46\\pic\\sources\\c99\\common\\doprnt.c"
    if ((*fmt)[0] == '%') {
        ++*fmt;

        flags = width = 0;
        prec = -1;



        done = 0;
        while (!done) {
            switch ((*fmt)[0]) {

                case '-' :
                    flags |= (1 << 0);
                    ++*fmt;
                    break;


                case '0' :
                    flags |= (1 << 1);
                    ++*fmt;
                    break;


                case '+' :
                    flags |= (1 << 2);
                    ++*fmt;
                    break;


                case ' ' :
                    flags |= (1 << 3);
                    ++*fmt;
                    break;


                case '#' :
                    flags |= (1 << 4);
                    ++*fmt;
                    break;

                default:
                    done = 1;
                    break;
            }
        }

        if (flags & (1 << 0)) {
            flags &= ~(1 << 1);
        }





  width = read_prec_or_width(fmt, ap);
  if (width < 0) {
   flags |= (1 << 0);
   width = -width;
  }




        if ((*fmt)[0] == '.') {
            ++*fmt;
   prec = read_prec_or_width(fmt, ap);
  }




        if ((*fmt)[0] == 'c') {
            ++*fmt;
            c = (unsigned char)(*(int *)__va_arg(*(int **)ap, (int)0));
# 1284 "C:\\Tools\\Microchip\\xc8\\v2.46\\pic\\sources\\c99\\common\\doprnt.c"
            return (int) ctoa(fp, c);

        }




  cp = *fmt;

  c = *cp;
  switch(c) {


   case 'h':
    cp++;

    if (*cp == 'h') {
     c = 'H';
     cp++;
    }

    break;
# 1326 "C:\\Tools\\Microchip\\xc8\\v2.46\\pic\\sources\\c99\\common\\doprnt.c"
   case 'z':

    cp++;
    break;


   case 'o':


   case 'u':


   case 'i':
   case 'd':


   case 'x':


   case 'X':


   case 'n':

    c = 'i';
    break;
   default :
    c = 0;
    break;
  }





  if (*cp == 'd' || *cp == 'i') {

   switch (c) {
    case 'i':
     convarg.sint = (vfpf_sint_t)(int)(*(int *)__va_arg(*(int **)ap, (int)0));
     break;

    case 'h':
     convarg.sint = (vfpf_sint_t)(short)(*(int *)__va_arg(*(int **)ap, (int)0));
     break;


    case 'H':
     convarg.sint = (vfpf_sint_t)(signed char)(*(int *)__va_arg(*(int **)ap, (int)0));
     break;
# 1398 "C:\\Tools\\Microchip\\xc8\\v2.46\\pic\\sources\\c99\\common\\doprnt.c"
    case 'z':
     convarg.sint = (vfpf_sint_t)(*(size_t *)__va_arg(*(size_t **)ap, (size_t)0));
     break;

   }



   *fmt = cp+1;
# 1432 "C:\\Tools\\Microchip\\xc8\\v2.46\\pic\\sources\\c99\\common\\doprnt.c"
   return (int) dtoa(fp, convarg.sint);

  }




  if (0

    || *cp == 'x'


    || *cp == 'X'


    || *cp == 'o'


    || *cp == 'u'

    ) {

   switch (c) {
    case 'i':
     convarg.uint = (vfpf_uint_t)(unsigned int)(*(unsigned int *)__va_arg(*(unsigned int **)ap, (unsigned int)0));
     break;

    case 'h':
     convarg.uint = (vfpf_uint_t)(unsigned short)(*(unsigned int *)__va_arg(*(unsigned int **)ap, (unsigned int)0));
     break;


    case 'H':
     convarg.uint = (vfpf_uint_t)(unsigned char)(*(unsigned int *)__va_arg(*(unsigned int **)ap, (unsigned int)0));
     break;
# 1489 "C:\\Tools\\Microchip\\xc8\\v2.46\\pic\\sources\\c99\\common\\doprnt.c"
    case 'z':
     convarg.uint = (vfpf_uint_t)(*(size_t *)__va_arg(*(size_t **)ap, (size_t)0));
     break;

   }



   *fmt = cp+1;
   switch (*cp) {

    case 'o':
# 1519 "C:\\Tools\\Microchip\\xc8\\v2.46\\pic\\sources\\c99\\common\\doprnt.c"
     return (int) otoa(fp, convarg.uint);



    case 'u':
# 1542 "C:\\Tools\\Microchip\\xc8\\v2.46\\pic\\sources\\c99\\common\\doprnt.c"
     return (int) utoa(fp, convarg.uint);




    case 'X':


    case 'x':
# 1586 "C:\\Tools\\Microchip\\xc8\\v2.46\\pic\\sources\\c99\\common\\doprnt.c"
     return (int) xtoa(fp,convarg.uint,*cp);


   }
  }




  if (*cp == 'n') {

   switch (c) {
    case 'i':
     *(*(int* *)__va_arg(*(int* **)ap, (int*)0)) = (int) nout;
     break;

    case 'h':
     *(*(short* *)__va_arg(*(short* **)ap, (short*)0)) = (short) nout;
     break;


    case 'H':
     *(*(signed char* *)__va_arg(*(signed char* **)ap, (signed char*)0)) = (signed char) nout;
     break;
# 1632 "C:\\Tools\\Microchip\\xc8\\v2.46\\pic\\sources\\c99\\common\\doprnt.c"
    case 'z':
     *(*(size_t* *)__va_arg(*(size_t* **)ap, (size_t*)0)) = (size_t) nout;
     break;

   }



   *fmt = cp+1;
   return (int) 0;
  }
# 1798 "C:\\Tools\\Microchip\\xc8\\v2.46\\pic\\sources\\c99\\common\\doprnt.c"
        if ((*fmt)[0] == '%') {
            ++*fmt;
            fputc((int)'%', fp);
            return (int) 1;
        }



        ++*fmt;
        return (int) 0;
    }


    fputc((int)(*fmt)[0], fp);
    ++*fmt;
    return (int) 1;
}


int vfprintf(FILE *fp, const char *fmt, va_list ap)
{

    char *cfmt;

    cfmt = (char *)fmt;

    nout = 0;

    while (*cfmt) {

        nout +=

   vfpfcnvrt(fp, &cfmt, ap);
    }



 return 0;




}
